[
  {
    "ID": 131.0,
    "Nom": "An Phú - Restaurant vietnamien",
    "SiteWeb": "",
    "NumeroCivique": "1105",
    "Rue": "King Est",
    "CodePostal": "J1G1E5",
    "Arrondissement": "De Jacques-Cartier",
    "Ville": "Sherbrooke",
    "Latitude": "45.4080776",
    "Longitude": "-71.86472400000002",
    "NumeroTelephone": "8195691445",
    "Categories": "7",
    "Offres": "0",
    "EchellePrix": 3.0,
    "DescriptionCourte": "Pour une cuisine vietnamienne authentique goûteuse et exquise, le restaurant An Phú est un incontournable.",
    "FichierImage": "http://www.destinationsherbrooke.com/partenaires/1586/images/an_hu3.jpg",
    "Distance": -1
  },
  {
    "ID": 126.0,
    "Nom": "Antidote FoodLab",
    "SiteWeb": "www.antidotefoodlab.com",
    "NumeroCivique": "35",
    "Rue": "rue Belvédère Nord, suite 10",
    "CodePostal": "J1H4A7",
    "Arrondissement": "De Jacques-Cartier",
    "Ville": "Sherbrooke",
    "Latitude": "45.399098",
    "Longitude": "-71.89704999999998",
    "NumeroTelephone": "8197919117",
    "Categories": "5",
    "Offres": "4",
    "EchellePrix": 4.0,
    "DescriptionCourte": "Laboratoire gourmand, l’Antidote offre une cuisine réconfort moderne dans le décor unique de l’ancienne usine textile de la Place Paton.",
    "FichierImage": "http://www.destinationsherbrooke.com/partenaires/1491/images/antidote_foodlab6.jpg",
    "Distance": -1
  },
  {
    "ID": 190.0,
    "Nom": "Au coin du Vietnam",
    "SiteWeb": "http://www.aucoinduvietnam.com/",
    "NumeroCivique": "1530",
    "Rue": "Galt Ouest",
    "CodePostal": "J1H2B4",
    "Arrondissement": "Du Mont-Bellevue",
    "Ville": "Sherbrooke",
    "Latitude": "45.386721",
    "Longitude": "-71.91308400000003",
    "NumeroTelephone": "8195668383",
    "Categories": "7",
    "Offres": "3,4",
    "EchellePrix": 3.0,
    "DescriptionCourte": "Premier restaurant vietnamien à Sherbrooke ouvert en 1978, cet établissement a traversé les décennies en se renouvelant et en s’adaptant aux goûts des Québécois. Si vous êtes de passage à Sherbrooke, le restaurant Au coi",
    "FichierImage": "http://www.destinationsherbrooke.com/partenaires/32054/images/Coin%20du%20Vietnam%201.png",
    "Distance": -1
  },
  {
    "ID": 94.0,
    "Nom": "Au Croquis, Café créatif",
    "SiteWeb": "http://centrevillesherbrooke.ca/store/cafe-creatif-au-croquis/",
    "NumeroCivique": "92",
    "Rue": "Wellington nord",
    "CodePostal": "J1H5B8",
    "Arrondissement": "Du Mont-Bellevue",
    "Ville": "Sherbrooke",
    "Latitude": "45.402939",
    "Longitude": "-71.89126299999998",
    "NumeroTelephone": "8195637589",
    "Categories": "6",
    "Offres": "3,4",
    "EchellePrix": 2.0,
    "DescriptionCourte": "L'équipe du Café créatif au croquis vous invite à découvrir un lieu où se rencontrent la saine cuisine végétarienne et l'expression artistique sous toutes ses formes.",
    "FichierImage": "http://www.destinationsherbrooke.com/partenaires/407/images/croquis_cafe.jpg",
    "Distance": -1
  },
  {
    "ID": 42.0,
    "Nom": "Auguste Restaurant",
    "SiteWeb": "www.auguste-restaurant.com/",
    "NumeroCivique": "82",
    "Rue": "Wellington Nord",
    "CodePostal": "J1H5B8",
    "Arrondissement": "Du Mont-Bellevue",
    "Ville": "Sherbrooke",
    "Latitude": "45.402741",
    "Longitude": "-71.891142",
    "NumeroTelephone": "8195659559",
    "Categories": "1,5,6",
    "Offres": "2,3,4",
    "EchellePrix": 4.0,
    "DescriptionCourte": "Auguste propose une cuisine gourmande et soignée qui met en valeur les produits du terroir.",
    "FichierImage": "http://www.destinationsherbrooke.com/partenaires/60/images/Enseigne%20logo%20Auguste-608-350.jpg",
    "Distance": -1
  },
  {
    "ID": 98.0,
    "Nom": "Bâton Rouge",
    "SiteWeb": "http://www.batonrougerestaurants.com/",
    "NumeroCivique": "2844",
    "Rue": "King Ouest",
    "CodePostal": "J1L1Y7",
    "Arrondissement": "De Jacques-Cartier",
    "Ville": "Sherbrooke",
    "Latitude": "45.3975",
    "Longitude": "-71.94239399999998",
    "NumeroTelephone": "8193469888",
    "Categories": "9",
    "Offres": "3,4",
    "EchellePrix": 3.0,
    "DescriptionCourte": "Bienvenue chez Bâton Rouge, où les côtes levées et grillades sont inégalables. Au moment où vous franchirez la porte, vous saurez qu’une expérience culinaire extraordinaire vous attend ...",
    "FichierImage": "http://www.destinationsherbrooke.com/partenaires/444/images/BATON-ROUGE-%20coteleve.jpg",
    "Distance": -1
  },
  {
    "ID": 71.0,
    "Nom": "Bières dépôt Au Vent du Nord",
    "SiteWeb": "www.bieresdepot.com",
    "NumeroCivique": "338",
    "Rue": "Belvédère Nord",
    "CodePostal": "J1H1J7",
    "Arrondissement": "De Jacques-Cartier",
    "Ville": "Sherbrooke",
    "Latitude": "45.403605",
    "Longitude": "-71.90128900000002",
    "NumeroTelephone": "8195699534",
    "Categories": "3",
    "Offres": "0",
    "EchellePrix": 1.0,
    "DescriptionCourte": "Venez découvrir ce qui se brasse à Bières dépôt au Vent du Nord, la plus grande sélection de bières québécoises de microbrasserie au Québec!",
    "FichierImage": "http://www.destinationsherbrooke.com/partenaires/249/images/vent_du_nord1.jpg",
    "Distance": -1
  },
  {
    "ID": 104.0,
    "Nom": "Bistro de la Cité",
    "SiteWeb": "www.bistrodelacite.com",
    "NumeroCivique": "950",
    "Rue": "King Ouest",
    "CodePostal": "",
    "Arrondissement": "De Jacques-Cartier",
    "Ville": "Sherbrooke",
    "Latitude": "45.398772",
    "Longitude": "-71.90276699999998",
    "NumeroTelephone": "8193461133",
    "Categories": "6",
    "Offres": "1,3,4",
    "EchellePrix": 2.0,
    "DescriptionCourte": "Situé à l'intérieur du complexe de la cité des rivières, dans le même établissement que le Spa Algua-Sulis, le Bistro de la cité vous accueille dans un décor intime et chaleureux.",
    "FichierImage": "http://www.destinationsherbrooke.com/partenaires/695/images/bistro_cite.jpg",
    "Distance": -1
  },
  {
    "ID": 184.0,
    "Nom": "Bistro Kàapeh espresso",
    "SiteWeb": "",
    "NumeroCivique": "137",
    "Rue": "Frontenac",
    "CodePostal": "J1H1J7",
    "Arrondissement": "De Jacques-Cartier",
    "Ville": "Sherbrooke",
    "Latitude": "45.404386",
    "Longitude": "-71.89341200000001",
    "NumeroTelephone": "8197919912",
    "Categories": "6,7",
    "Offres": "0,1,3,4",
    "EchellePrix": 2.0,
    "DescriptionCourte": "Un sympathique café bistro pour tous au bord de la rivière qui vous offre un café de spécialité,des bières de micro-brasseries et des plats fusion Mexique-Québec.",
    "FichierImage": "http://www.destinationsherbrooke.com/partenaires/1843/images/kaapeh-1.jpg",
    "Distance": -1
  },
  {
    "ID": 120.0,
    "Nom": "Bistro Kapzak",
    "SiteWeb": "http://www.bistrokapzak.ca",
    "NumeroCivique": "20",
    "Rue": "Wellington Sud",
    "CodePostal": "J1H5C7",
    "Arrondissement": "Du Mont-Bellevue",
    "Ville": "Sherbrooke",
    "Latitude": "45.401033",
    "Longitude": "-71.89007800000002",
    "NumeroTelephone": "8197911176",
    "Categories": "1,5,6",
    "Offres": "2,3,4",
    "EchellePrix": 4.0,
    "DescriptionCourte": "Au Bistro Kapzak, goûtez des plats influencés par la cuisine européenne moderne avec une touche bien de chez nous!",
    "FichierImage": "http://www.destinationsherbrooke.com/partenaires/956/images/Kapzak_2015.jpg",
    "Distance": -1
  },
  {
    "ID": 43.0,
    "Nom": "Bistro Tapageur",
    "SiteWeb": "www.bartapageur.com",
    "NumeroCivique": "83",
    "Rue": "King Ouest",
    "CodePostal": "J1H1P1",
    "Arrondissement": "Du Mont-Bellevue",
    "Ville": "Sherbrooke",
    "Latitude": "45.401609",
    "Longitude": "-71.88962600000002",
    "NumeroTelephone": "8198235444",
    "Categories": "2,6",
    "Offres": "3,4",
    "EchellePrix": 3.0,
    "DescriptionCourte": "Situé au centre-ville de Sherbrooke, à proximité de la place Nikitotek et voisin de la Maison du cinéma, le Tapageur propose une ambiance cordiale tous les jours de la semaine.",
    "FichierImage": "http://www.destinationsherbrooke.com/partenaires/34/images/tapageur.jpg",
    "Distance": -1
  },
  {
    "ID": 18.0,
    "Nom": "Boquébière",
    "SiteWeb": "www.boquebiere.com/",
    "NumeroCivique": "50",
    "Rue": "Wellington Nord",
    "CodePostal": "J1H5B7",
    "Arrondissement": "Du Mont-Bellevue",
    "Ville": "Sherbrooke",
    "Latitude": "45.40229",
    "Longitude": "-71.89086399999997",
    "NumeroTelephone": "8195421311",
    "Categories": "2",
    "Offres": "4",
    "EchellePrix": 3.0,
    "DescriptionCourte": "Le Boq est une microbrasserie artisanale, c’est aussi un bar à bières offrant 22 lignes de bière en fût et une sélection d’importations privées.",
    "FichierImage": "http://www.destinationsherbrooke.com/partenaires/35/images/boquebiere3.jpg",
    "Distance": -1
  },
  {
    "ID": 19.0,
    "Nom": "Boston Pizza Sherbrooke",
    "SiteWeb": "www.bostonpizza.com",
    "NumeroCivique": "550",
    "Rue": "Jean-Paul-Perrault",
    "CodePostal": "J1L3A6",
    "Arrondissement": "De Jacques-Cartier",
    "Ville": "Sherbrooke",
    "Latitude": "45.405121",
    "Longitude": "-71.959296",
    "NumeroTelephone": "8195650606",
    "Categories": "9",
    "Offres": "3,4",
    "EchellePrix": 3.0,
    "DescriptionCourte": "Un restaurant et bar sportif avec atmosphère qui sait plaire aux familles!",
    "FichierImage": "http://www.destinationsherbrooke.com/partenaires/36/images/boston_pizza.jpg",
    "Distance": -1
  },
  {
    "ID": 69.0,
    "Nom": "Boulangerie Daniel Dufeu",
    "SiteWeb": "www.boulangeriedufeu.com/fr/",
    "NumeroCivique": "17",
    "Rue": "Bowen Nord",
    "CodePostal": "J1E2C6",
    "Arrondissement": "De Fleurimont",
    "Ville": "Sherbrooke",
    "Latitude": "45.404466",
    "Longitude": "-71.88542899999999",
    "NumeroTelephone": "8198222982",
    "Categories": "3",
    "Offres": "0",
    "EchellePrix": 1.0,
    "DescriptionCourte": "Les produits de la boulangerie Dufeu sont fabriqués de façon artisanale...",
    "FichierImage": "http://www.destinationsherbrooke.com/partenaires/247/images/DanielDuFeu1.jpg",
    "Distance": -1
  },
  {
    "ID": 117.0,
    "Nom": "Boulangerie Green’s",
    "SiteWeb": "http://www.facebook.com/pages/Boulangerie-Greens-Bakery/174430349288826",
    "NumeroCivique": "127",
    "Rue": "rue Queen",
    "CodePostal": "",
    "Arrondissement": "De Lennoxville",
    "Ville": "Sherbrooke",
    "Latitude": "45.367118",
    "Longitude": "-71.85654999999997",
    "NumeroTelephone": "8195695038",
    "Categories": "3",
    "Offres": "1,3",
    "EchellePrix": 2.0,
    "DescriptionCourte": "Découvrez à la boulangerie Green's une gamme de produits de boulangerie et de pâtisserie préparée à partir d'ingrédients locaux.",
    "FichierImage": "http://www.destinationsherbrooke.com/partenaires/861/images/green.jpg",
    "Distance": -1
  },
  {
    "ID": 66.0,
    "Nom": "Boulangerie Les 7 épis d'or",
    "SiteWeb": "",
    "NumeroCivique": "745",
    "Rue": "13e Avenue",
    "CodePostal": "",
    "Arrondissement": "De Fleurimont",
    "Ville": "Sherbrooke",
    "Latitude": "45.419354",
    "Longitude": "-71.87253800000002",
    "NumeroTelephone": "8195638554",
    "Categories": "3",
    "Offres": "0",
    "EchellePrix": 1.0,
    "DescriptionCourte": "Boulangerie pâtisserie de tradition belge depuis maintenant quatre générations.",
    "FichierImage": "http://www.destinationsherbrooke.com/partenaires/241/images/les_7_epis_dor_boulangerie.jpg",
    "Distance": -1
  },
  {
    "ID": 14.0,
    "Nom": "Brasserie Daniel Lapointe",
    "SiteWeb": "www.brasseriedaniellapointe.com/",
    "NumeroCivique": "380",
    "Rue": "King Ouest",
    "CodePostal": "J1H1R4",
    "Arrondissement": "Du Mont-Bellevue",
    "Ville": "Sherbrooke",
    "Latitude": "45.399102",
    "Longitude": "-71.89553000000001",
    "NumeroTelephone": "8193467989",
    "Categories": "8",
    "Offres": "3,4",
    "EchellePrix": 2.0,
    "DescriptionCourte": "Fruits de mer, steaks, tables d’hôte et assiettes du mois, telles sont les spécialités de la Brasserie Daniel Lapointe.",
    "FichierImage": "http://www.destinationsherbrooke.com/partenaires/72/images/brasserie_daniel_lapointe3.jpg",
    "Distance": -1
  },
  {
    "ID": 75.0,
    "Nom": "Brasserie Fleurimont",
    "SiteWeb": "brasseriefleurimont.com",
    "NumeroCivique": "1325",
    "Rue": "12e Avenue Nord",
    "CodePostal": "",
    "Arrondissement": "De Fleurimont",
    "Ville": "Sherbrooke",
    "Latitude": "45.424931",
    "Longitude": "-71.87214599999999",
    "NumeroTelephone": "8195664844",
    "Categories": "8",
    "Offres": "3",
    "EchellePrix": 3.0,
    "DescriptionCourte": "Elle n’a de brasserie que le nom. Restaurant de prestige où les steaks et les fruits de mer sont servis aux meilleurs prix. Nouveau décor urbain pouvant accueillir familles et groupes.",
    "FichierImage": "http://www.destinationsherbrooke.com/partenaires/253/images/brasserie_fleurimont1.jpg",
    "Distance": -1
  },
  {
    "ID": 20.0,
    "Nom": "Brasserie Le Dauphin",
    "SiteWeb": "www.brasserieledauphin.com",
    "NumeroCivique": "925",
    "Rue": "King Est",
    "CodePostal": "J1G1E3",
    "Arrondissement": "De Fleurimont",
    "Ville": "Sherbrooke",
    "Latitude": "45.408022",
    "Longitude": "-71.86934500000001",
    "NumeroTelephone": "8195650911",
    "Categories": "8",
    "Offres": "3,4",
    "EchellePrix": 3.0,
    "DescriptionCourte": "Dans l'arrondissement de Fleurimont, la Brasserie Le Dauphin se spécialise dans les grillades, le steak et les fruits de mer.",
    "FichierImage": "http://www.destinationsherbrooke.com/partenaires/37/images/brasserie_le_dauphin.jpg",
    "Distance": -1
  },
  {
    "ID": 21.0,
    "Nom": "Brûlerie Caffuccino",
    "SiteWeb": "www.caffuccino.com",
    "NumeroCivique": "1700",
    "Rue": "King Ouest",
    "CodePostal": "J1J2C9",
    "Arrondissement": "De Jacques-Cartier",
    "Ville": "Sherbrooke",
    "Latitude": "45.39854",
    "Longitude": "-71.91713300000004",
    "NumeroTelephone": "8198212346",
    "Categories": "6",
    "Offres": "1,3,4",
    "EchellePrix": 3.0,
    "DescriptionCourte": "Une immense variété de sandwichs paninis, pizzas européennes, pâtes fraîches, desserts et cafés font la réputation du Caffuccino!",
    "FichierImage": "http://www.destinationsherbrooke.com/partenaires/38/images/caffuccino.jpg",
    "Distance": -1
  },
  {
    "ID": 113.0,
    "Nom": "Brûleries FARO, Marchand torréfacteur -1982",
    "SiteWeb": "www.bruleriesdecafe.com",
    "NumeroCivique": "180",
    "Rue": "rue Wellington Nord",
    "CodePostal": "J1H5C5",
    "Arrondissement": "Du Mont-Bellevue",
    "Ville": "Sherbrooke",
    "Latitude": "45.40425",
    "Longitude": "-71.89212299999997",
    "NumeroTelephone": "8198201223",
    "Categories": "6",
    "Offres": "1,3,4",
    "EchellePrix": 2.0,
    "DescriptionCourte": "Vous y trouverez une gamme complète de cafés gourmets, biologiques et équitables, fraîchement torréfiés, en plus de tous les produits complémentaires au café tels que, cafetières, thés, viennoiseries.",
    "FichierImage": "http://www.destinationsherbrooke.com/partenaires/729/images/brulerie_de_cafe_de_sherbrooke6.jpg",
    "Distance": -1
  },
  {
    "ID": 1.0,
    "Nom": "Buffet des Continents",
    "SiteWeb": "www.lebuffetdescontinents.com/fr",
    "NumeroCivique": "340",
    "Rue": "Belvédère Sud",
    "CodePostal": "J1H4B5",
    "Arrondissement": "Du Mont-Bellevue",
    "Ville": "Sherbrooke",
    "Latitude": "45.394616",
    "Longitude": "-71.89554399999997",
    "NumeroTelephone": "8195641099",
    "Categories": "7,9",
    "Offres": "2,3,4",
    "EchellePrix": 2.0,
    "DescriptionCourte": "C'est un véritable voyage autour du monde que vous propose le Buffet des Continents.",
    "FichierImage": "http://www.destinationsherbrooke.com/partenaires/39/images/buffet_des_continents.jpg",
    "Distance": -1
  },
  {
    "ID": 23.0,
    "Nom": "Café Bla-Bla",
    "SiteWeb": "www.cafeblabla.ca",
    "NumeroCivique": "2",
    "Rue": "Wellington Sud",
    "CodePostal": "J1H5C7",
    "Arrondissement": "Du Mont-Bellevue",
    "Ville": "Sherbrooke",
    "Latitude": "45.401295",
    "Longitude": "-71.89024899999998",
    "NumeroTelephone": "8195651366",
    "Categories": "6",
    "Offres": "3,4",
    "EchellePrix": 3.0,
    "DescriptionCourte": "Le café Bla-Bla vous offre un choix de bières importées, de bières pression, de cocktails maison avec ou sans alcool.",
    "FichierImage": "http://www.destinationsherbrooke.com/partenaires/41/images/cafe_blabla2.jpg",
    "Distance": -1
  },
  {
    "ID": 72.0,
    "Nom": "Café Classyco",
    "SiteWeb": "www.leclassyco.com",
    "NumeroCivique": "133",
    "Rue": "Frontenac",
    "CodePostal": "J1H1J7",
    "Arrondissement": "Du Mont-Bellevue",
    "Ville": "Sherbrooke",
    "Latitude": "45.404399",
    "Longitude": "-71.89327300000002",
    "NumeroTelephone": "8195654148",
    "Categories": "7",
    "Offres": "3,4",
    "EchellePrix": 3.0,
    "DescriptionCourte": "Le Café Classyco c’est une expérience culinaire qui vous fera suivre la route des épices...",
    "FichierImage": "http://www.destinationsherbrooke.com/partenaires/250/images/classyco1.jpg",
    "Distance": -1
  },
  {
    "ID": 116.0,
    "Nom": "Café du Globe",
    "SiteWeb": "http://www.facebook.com/#!/pages/CAF%C3%89-DU-GLOBE/347144512798",
    "NumeroCivique": "2230",
    "Rue": "Gallt Ouest",
    "CodePostal": "J1K1K5",
    "Arrondissement": "Du Mont-Bellevue",
    "Ville": "Sherbrooke",
    "Latitude": "45.387025",
    "Longitude": "-71.927795",
    "NumeroTelephone": "8197910651",
    "Categories": "6",
    "Offres": "3,4",
    "EchellePrix": 2.0,
    "DescriptionCourte": "Le Café du Globe est un sympathique café-bistro situé dans le quartier universitaire de la ville. On s'y arrête pour y passer une soirée entre amis, pour un rendez-vous d'affaires, pour luncher ou pour potasser.",
    "FichierImage": "http://www.destinationsherbrooke.com/partenaires/789/images/cafe_du_globe1.jpg",
    "Distance": -1
  },
  {
    "ID": 105.0,
    "Nom": "Café Pierre Jean Jase",
    "SiteWeb": "",
    "NumeroCivique": "550",
    "Rue": "Montréal",
    "CodePostal": "",
    "Arrondissement": "De Jacques-Cartier",
    "Ville": "Sherbrooke",
    "Latitude": "45.404292",
    "Longitude": "-71.90089599999999",
    "NumeroTelephone": "8198295927",
    "Categories": "6",
    "Offres": "1,3,4",
    "EchellePrix": 2.0,
    "DescriptionCourte": "Invitant et convial, le Café Pierre Jean Jase vous invite à déguster un bon petit déjeuner entre amis, un lunch ou encore un de ses délicieux burgers pour souper...",
    "FichierImage": "http://www.destinationsherbrooke.com/partenaires/698/images/cafe_piere_jean_jase.jpg",
    "Distance": -1
  },
  {
    "ID": 106.0,
    "Nom": "Café The Singing Goat",
    "SiteWeb": "",
    "NumeroCivique": "287",
    "Rue": "Galt Ouest",
    "CodePostal": "J1H1Y1",
    "Arrondissement": "Du Mont-Bellevue",
    "Ville": "Sherbrooke",
    "Latitude": "45.394166",
    "Longitude": "-71.889905",
    "NumeroTelephone": "8198201118",
    "Categories": "6",
    "Offres": "1,3",
    "EchellePrix": 2.0,
    "DescriptionCourte": "Un café coloré avec un croquant bio et végétarien!",
    "FichierImage": "http://www.destinationsherbrooke.com/partenaires/699/images/singing_goat.jpg",
    "Distance": -1
  },
  {
    "ID": 107.0,
    "Nom": "Chanchai",
    "SiteWeb": "",
    "NumeroCivique": "111",
    "Rue": "King Ouest",
    "CodePostal": "",
    "Arrondissement": "Du Mont-Bellevue",
    "Ville": "Sherbrooke",
    "Latitude": "45.40131",
    "Longitude": "-71.89046100000002",
    "NumeroTelephone": "8195692666",
    "Categories": "7",
    "Offres": "0",
    "EchellePrix": 2.0,
    "DescriptionCourte": "Typique cuisine thaïlandaise dans la plus pure tradition.",
    "FichierImage": "http://www.destinationsherbrooke.com/partenaires/715/images/chanchai1.jpg",
    "Distance": -1
  },
  {
    "ID": 181.0,
    "Nom": "Chez Linh",
    "SiteWeb": "www.chezlinh.com",
    "NumeroCivique": "900",
    "Rue": "King Ouest",
    "CodePostal": "J1H1S2",
    "Arrondissement": "De Jacques-Cartier",
    "Ville": "Sherbrooke",
    "Latitude": "45.3986947",
    "Longitude": "-71.90194600000001",
    "NumeroTelephone": "8195657071",
    "Categories": "7,9",
    "Offres": "3,4",
    "EchellePrix": 3.0,
    "DescriptionCourte": "Fine cuisine vietnamienne offrant des menus à la carte, pour emporter, des tables d’hôtes ainsi que des repas familiaux.",
    "FichierImage": "http://www.destinationsherbrooke.com/partenaires/1836/images/Linh-5-web.jpg",
    "Distance": -1
  },
  {
    "ID": 178.0,
    "Nom": "Chez Renaud Comptoirs gourmet",
    "SiteWeb": "www.chez-renaud.com",
    "NumeroCivique": "2655",
    "Rue": "King Ouest",
    "CodePostal": "J1L2G4",
    "Arrondissement": "De Jacques-Cartier",
    "Ville": "Sherbrooke",
    "Latitude": "45.398259",
    "Longitude": "-71.93855300000001",
    "NumeroTelephone": "8195641616",
    "Categories": "6",
    "Offres": "1,3,4",
    "EchellePrix": 2.0,
    "DescriptionCourte": "Chez Renaud offre des produits frais, de qualité et spécialisés dans un décor feutré et une ambiance de style café français.",
    "FichierImage": "http://www.destinationsherbrooke.com/partenaires/1779/images/renaud.jpg",
    "Distance": -1
  },
  {
    "ID": 189.0,
    "Nom": "Chîz Pâ Chîz",
    "SiteWeb": "https://www.facebook.com/chizpachiz/info?tab=overview",
    "NumeroCivique": "96",
    "Rue": "King Ouest",
    "CodePostal": "J1H1P3",
    "Arrondissement": "Du Mont-Bellevue",
    "Ville": "Sherbrooke",
    "Latitude": "45.40138",
    "Longitude": "-71.89014500000002",
    "NumeroTelephone": "8197917701",
    "Categories": "3,9,10",
    "Offres": "3,4",
    "EchellePrix": 2.0,
    "DescriptionCourte": "Burgers faits maison avec les ingrédients de votre choix.",
    "FichierImage": "http://www.destinationsherbrooke.com/partenaires/32043/images/Burgers%20Chiz%20Pa%20Chiz.jpg",
    "Distance": -1
  },
  {
    "ID": 68.0,
    "Nom": "Chocolaterie Choco-là",
    "SiteWeb": "www.1chocolat.ca",
    "NumeroCivique": "2445",
    "Rue": "King Ouest",
    "CodePostal": "J1J2G7",
    "Arrondissement": "Du Mont-Bellevue",
    "Ville": "Sherbrooke",
    "Latitude": "45.398393",
    "Longitude": "-71.932433",
    "NumeroTelephone": "8198221771",
    "Categories": "3",
    "Offres": "0",
    "EchellePrix": 2.0,
    "DescriptionCourte": "Choco-Là vous offre des produits chocolatés fabriqués sur place de façon artisanale avec les meilleurs ingrédients qui soient.",
    "FichierImage": "http://www.destinationsherbrooke.com/partenaires/246/images/chocola3.jpg",
    "Distance": -1
  },
  {
    "ID": 119.0,
    "Nom": "Chocolaterie La Truffinoise",
    "SiteWeb": "www.latruffinoise.com",
    "NumeroCivique": "6002",
    "Rue": "chemin St-Élie",
    "CodePostal": "J1R0L1",
    "Arrondissement": "De Rock Forest-Saint-Élie-Deauville",
    "Ville": "Sherbrooke",
    "Latitude": "45.394946",
    "Longitude": "-72.00665900000001",
    "NumeroTelephone": "8193481414",
    "Categories": "3",
    "Offres": "0",
    "EchellePrix": 1.0,
    "DescriptionCourte": "La chocolaterie artisanale La Truffinoise vous offre une vaste gamme de truffes et chocolats moulés de toutes sortes et pour tous les événements de votre vie.",
    "FichierImage": "http://www.destinationsherbrooke.com/partenaires/877/images/truffinoise4.jpg",
    "Distance": -1
  },
  {
    "ID": 80.0,
    "Nom": "Chou de Bruxelles",
    "SiteWeb": "http://www.restaurantlechoudebruxelles.com/",
    "NumeroCivique": "1461",
    "Rue": "Galt Ouest",
    "CodePostal": "J1H2A9",
    "Arrondissement": "Du Mont-Bellevue",
    "Ville": "Sherbrooke",
    "Latitude": "45.386759",
    "Longitude": "-71.91163799999998",
    "NumeroTelephone": "8195641848",
    "Categories": "5",
    "Offres": "4",
    "EchellePrix": 3.0,
    "DescriptionCourte": "Mangez bien, mangez bon, mangez vrai, mangez différent sans prétention… c’est ça le Chou de Bruxelles.",
    "FichierImage": "http://www.destinationsherbrooke.com/partenaires/299/images/chou_de_bruxelles1.jpg",
    "Distance": -1
  },
  {
    "ID": 25.0,
    "Nom": "Da Leonardo",
    "SiteWeb": "www.restaurantdaleonardo.com",
    "NumeroCivique": "4664",
    "Rue": "boul. Bourque",
    "CodePostal": "J1N2A8",
    "Arrondissement": "De Rock Forest-Saint-Élie-Deauville",
    "Ville": "Sherbrooke",
    "Latitude": "45.374633",
    "Longitude": "-71.982077",
    "NumeroTelephone": "8195640666",
    "Categories": "7",
    "Offres": "3,4",
    "EchellePrix": 3.0,
    "DescriptionCourte": "Escalopes de veau de lait servies d'une foule de façons, plus d'une vingtaine de choix de sauces pour  accompagner nos pâtes fraiches et que dire de nos délicieux risottos.",
    "FichierImage": "http://www.destinationsherbrooke.com/partenaires/45/images/da_leonardo1.jpg",
    "Distance": -1
  },
  {
    "ID": 26.0,
    "Nom": "Da Toni",
    "SiteWeb": "www.datoni.com",
    "NumeroCivique": "15",
    "Rue": "Belvédère Nord",
    "CodePostal": "J1H4A7",
    "Arrondissement": "Du Mont-Bellevue",
    "Ville": "Sherbrooke",
    "Latitude": "45.398886",
    "Longitude": "-71.89690999999999",
    "NumeroTelephone": "8193468441",
    "Categories": "1,5",
    "Offres": "3,4",
    "EchellePrix": 4.0,
    "DescriptionCourte": "Réputé depuis 1969 pour sa cuisine italienne et française, Da Toni vous offre tables d’hôte et menus midi sans pareil. Venez vous asseoir sur la terrasse à l’européenne, au coeur du nouveau centre-ville.",
    "FichierImage": "http://www.destinationsherbrooke.com/partenaires/46/images/datoni1.jpg",
    "Distance": -1
  },
  {
    "ID": 182.0,
    "Nom": "Da Toni Pronto",
    "SiteWeb": "http://www.datonipronto.com",
    "NumeroCivique": "42",
    "Rue": "boul. Jacques-Cartier Nord",
    "CodePostal": "J1J2X8",
    "Arrondissement": "De Jacques-Cartier",
    "Ville": "Sherbrooke",
    "Latitude": "45.399186",
    "Longitude": "-71.91866900000002",
    "NumeroTelephone": "8197915900",
    "Categories": "10",
    "Offres": "3,4",
    "EchellePrix": 1.0,
    "DescriptionCourte": "Comptoir de pâtes et pizza authentiques exclusivement pour emporter. Commandes en ligne, par téléphone ou directement sur place.",
    "FichierImage": "http://www.destinationsherbrooke.com/partenaires/1838/images/Da-Toni-Pronto-1-web.jpg",
    "Distance": -1
  },
  {
    "ID": 5.0,
    "Nom": "Délia Egg'xtra",
    "SiteWeb": "www.deliaeggxtra.com",
    "NumeroCivique": "661",
    "Rue": "King Est",
    "CodePostal": "J1G1C1",
    "Arrondissement": "De Fleurimont",
    "Ville": "Sherbrooke",
    "Latitude": "45.408064",
    "Longitude": "-71.87409000000002",
    "NumeroTelephone": "8195665315",
    "Categories": "9",
    "Offres": "1,3",
    "EchellePrix": 2.0,
    "DescriptionCourte": "Plus de 31 ans à servir de bons déjeuners et dîners! Sont préparés ici les meilleurs oeufs à la bénédictine et d’excellentes crêpes aux fruits frais!",
    "FichierImage": "http://www.destinationsherbrooke.com/partenaires/47/images/delia_extra5.jpg",
    "Distance": -1
  },
  {
    "ID": 118.0,
    "Nom": "Délices des nations",
    "SiteWeb": "www.delicesdesnations.ca",
    "NumeroCivique": "185",
    "Rue": "Belvédère nord",
    "CodePostal": "J1H4A7",
    "Arrondissement": "Du Mont-Bellevue",
    "Ville": "Sherbrooke",
    "Latitude": "45.400735",
    "Longitude": "-71.89819499999999",
    "NumeroTelephone": "8198220184",
    "Categories": "3,7",
    "Offres": "1,3,4",
    "EchellePrix": 2.0,
    "DescriptionCourte": "Délices des nations est une épicerie fine d’importation internationale possédant un des plus grands comptoirs de fromage et charcuterie en région.",
    "FichierImage": "http://www.destinationsherbrooke.com/partenaires/876/images/delices_nations.jpg",
    "Distance": -1
  },
  {
    "ID": 193.0,
    "Nom": "DT Bistro",
    "SiteWeb": "http://bistrodt.com/",
    "NumeroCivique": "4880",
    "Rue": "Boulevard Bourque",
    "CodePostal": "J1N2A7",
    "Arrondissement": "De Rock Forest-Saint-Élie-Deauville",
    "Ville": "Sherbrooke",
    "Latitude": "45.371235",
    "Longitude": "-71.98808700000001",
    "NumeroTelephone": "8198224777",
    "Categories": "6",
    "Offres": "3,4",
    "EchellePrix": 3.0,
    "DescriptionCourte": "Une ambiance éclatée, décontractée et colorée. Le DT, c’est un bistro sympathique où il fait bon de se retrouver pour goûter à différents classiques réinventés.",
    "FichierImage": "http://www.destinationsherbrooke.com/partenaires/42098/images/DT_Resto.jpg",
    "Distance": -1
  },
  {
    "ID": 100.0,
    "Nom": "East Side Mario’s",
    "SiteWeb": "http://www.eastsidemarios.com/?lang=FR#/",
    "NumeroCivique": "2660",
    "Rue": "King Ouest",
    "CodePostal": "",
    "Arrondissement": "De Jacques-Cartier",
    "Ville": "Sherbrooke",
    "Latitude": "45.398124",
    "Longitude": "-71.93815599999999",
    "NumeroTelephone": "8198292003",
    "Categories": "7,9",
    "Offres": "3,4",
    "EchellePrix": 3.0,
    "DescriptionCourte": "East Side Mario’s est connu pour son excellent rapport qualité-prix, mais ce qui fait revenir les gens, c’est la qualité de sa cuisine italienne.",
    "FichierImage": "http://www.destinationsherbrooke.com/partenaires/446/images/east_side_mario4.jpg",
    "Distance": -1
  },
  {
    "ID": 6.0,
    "Nom": "Fondue Folie",
    "SiteWeb": "www.fonduefolie.com",
    "NumeroCivique": "2258",
    "Rue": "King Ouest",
    "CodePostal": "J1J2E8",
    "Arrondissement": "De Jacques-Cartier",
    "Ville": "Sherbrooke",
    "Latitude": "45.398243",
    "Longitude": "-71.92845",
    "NumeroTelephone": "8198214441",
    "Categories": "5",
    "Offres": "4",
    "EchellePrix": 2.0,
    "DescriptionCourte": "Avec sa terrasse au coeur de la ville, dans un décor chaleureux, unique et stylisé, Fondue Folie est l’endroit par excellence pour les soupers en amoureux ou pour passer une folle soirée entre amis.",
    "FichierImage": "http://www.destinationsherbrooke.com/partenaires/48/images/fondue_folie1.jpg",
    "Distance": -1
  },
  {
    "ID": 124.0,
    "Nom": "Guacamole y tequila",
    "SiteWeb": "www.guacamoleytequila.com",
    "NumeroCivique": "2340",
    "Rue": "King Ouest",
    "CodePostal": "J1J2E8",
    "Arrondissement": "De Jacques-Cartier",
    "Ville": "Sherbrooke",
    "Latitude": "",
    "Longitude": "",
    "NumeroTelephone": "8198238181",
    "Categories": "7",
    "Offres": "3,4",
    "EchellePrix": 3.0,
    "DescriptionCourte": "Guacamole y tequila propose une cuisine mexicaine traditionnelle dans un décor à la fois typique et moderne, où passer une soirée entre amis vous fait vivre une expérience multisensorielle…",
    "FichierImage": "http://www.destinationsherbrooke.com/partenaires/1436/images/guacamole_y_tequila6.jpg",
    "Distance": -1
  },
  {
    "ID": 86.0,
    "Nom": "Jack-O Restaurant",
    "SiteWeb": "",
    "NumeroCivique": "5156",
    "Rue": "boulevard Bourque",
    "CodePostal": "",
    "Arrondissement": "De Rock Forest-Saint-Élie-Deauville",
    "Ville": "Sherbrooke",
    "Latitude": "45.367642",
    "Longitude": "-71.99447600000002",
    "NumeroTelephone": "8198647055",
    "Categories": "9",
    "Offres": "1,3,4",
    "EchellePrix": 3.0,
    "DescriptionCourte": "Venez goûter les savoureuses pizzas à chacune des succursales Jack-O Restaurant.",
    "FichierImage": "http://www.destinationsherbrooke.com/partenaires/305/images/jack_o_restaurant.jpg",
    "Distance": -1
  },
  {
    "ID": 96.0,
    "Nom": "La Cage-Brasserie sportive de Sherbrooke",
    "SiteWeb": "http://www.cage.ca/sherbrooke",
    "NumeroCivique": "2655",
    "Rue": "King Ouest",
    "CodePostal": "J1L2G4",
    "Arrondissement": "De Jacques-Cartier",
    "Ville": "Sherbrooke",
    "Latitude": "45.398277",
    "Longitude": "-71.93786",
    "NumeroTelephone": "8198220050",
    "Categories": "8",
    "Offres": "3,4",
    "EchellePrix": 3.0,
    "DescriptionCourte": "La Cage-Brasserie sportive de Sherbrooke est le meilleur restaurant d'ambiance sportive.",
    "FichierImage": "http://www.destinationsherbrooke.com/partenaires/419/images/cage_aux_sports3.jpg",
    "Distance": -1
  },
  {
    "ID": 195.0,
    "Nom": "La Camomille",
    "SiteWeb": "http://lacamomille.com/",
    "NumeroCivique": "27",
    "Rue": "de London",
    "CodePostal": "J1H3M4",
    "Arrondissement": "De Jacques-Cartier",
    "Ville": "Sherbrooke",
    "Latitude": "45.399266",
    "Longitude": "-71.90335099999999",
    "NumeroTelephone": "8195690202",
    "Categories": "3,6",
    "Offres": "3,4",
    "EchellePrix": 2.0,
    "DescriptionCourte": "Dégustez des plats végétariens, végétaliens et faits d'aliments biologiques sur la jolie terrasse du restaurant La Camomille!",
    "FichierImage": "http://www.destinationsherbrooke.com/partenaires/42124/images/la_camomille_logo.jpg",
    "Distance": -1
  },
  {
    "ID": 128.0,
    "Nom": "La Friterie",
    "SiteWeb": "https://www.facebook.com/La.Friterie.Deauville",
    "NumeroCivique": "7329",
    "Rue": "boul. Bourque",
    "CodePostal": "J1N3M4",
    "Arrondissement": "De Rock Forest-Saint-Élie-Deauville",
    "Ville": "Sherbrooke",
    "Latitude": "45.342449",
    "Longitude": "-72.04120599999999",
    "NumeroTelephone": "8198644555",
    "Categories": "9,10",
    "Offres": "1,3,4",
    "EchellePrix": 2.0,
    "DescriptionCourte": "Restaurant familial sympathique au décor rétro.",
    "FichierImage": "http://www.destinationsherbrooke.com/partenaires/1568/images/friterie2.jpg",
    "Distance": -1
  },
  {
    "ID": 129.0,
    "Nom": "La Mare au Diable",
    "SiteWeb": "https://www.facebook.com/pages/La-Mare-au-Diable/195156190525955?fref=ts",
    "NumeroCivique": "151",
    "Rue": "King Ouest",
    "CodePostal": "",
    "Arrondissement": "De Jacques-Cartier",
    "Ville": "Sherbrooke",
    "Latitude": "45.400889",
    "Longitude": "-71.891391",
    "NumeroTelephone": "8195621001",
    "Categories": "2",
    "Offres": "4",
    "EchellePrix": 1.0,
    "DescriptionCourte": "La Mare au Diable vous fera découvrir des bières délicieuses dans une ambiance des plus décontractées.",
    "FichierImage": "http://www.destinationsherbrooke.com/partenaires/1569/images/mare_diable.jpg",
    "Distance": -1
  },
  {
    "ID": 64.0,
    "Nom": "La Mie de la couronne",
    "SiteWeb": "",
    "NumeroCivique": "74",
    "Rue": "Alexandre",
    "CodePostal": "J1H4S6",
    "Arrondissement": "Du Mont-Bellevue",
    "Ville": "Sherbrooke",
    "Latitude": "45.398744",
    "Longitude": "-71.89339799999999",
    "NumeroTelephone": "8193467246",
    "Categories": "3",
    "Offres": "0",
    "EchellePrix": 1.0,
    "DescriptionCourte": "La Mie de la couronne, c'est une boulangerie biologique situé sur la rue Alexandre, dans le centre-ville de Sherbrooke.",
    "FichierImage": "http://www.destinationsherbrooke.com/partenaires/238/images/mie_de_la_couronne2.jpg",
    "Distance": -1
  },
  {
    "ID": 28.0,
    "Nom": "La Table du Chef",
    "SiteWeb": "www.latableduchef.ca",
    "NumeroCivique": "11",
    "Rue": "Victoria",
    "CodePostal": "J1H3H8",
    "Arrondissement": "De Jacques-Cartier",
    "Ville": "Sherbrooke",
    "Latitude": "45.399066",
    "Longitude": "-71.90605299999999",
    "NumeroTelephone": "8195622258",
    "Categories": "1,5",
    "Offres": "3,4",
    "EchellePrix": 4.0,
    "DescriptionCourte": "Certains éléments du décor, le bois, la pierre, mais surtout le fumet des bons plats contribuent à rendre ce restaurant confortable et chaleureux.",
    "FichierImage": "http://www.destinationsherbrooke.com/partenaires/52/images/table_du_chef2.jpg",
    "Distance": -1
  },
  {
    "ID": 97.0,
    "Nom": "Le Bacchus",
    "SiteWeb": "http://www.menupix.com/quebec/restaurants/1139235/Restaurant-Le-Bacchus-Sherbrooke-QC",
    "NumeroCivique": "2675",
    "Rue": "King Ouest",
    "CodePostal": "",
    "Arrondissement": "De Jacques-Cartier",
    "Ville": "Sherbrooke",
    "Latitude": "45.39815",
    "Longitude": "-71.94037900000001",
    "NumeroTelephone": "8198233338",
    "Categories": "5",
    "Offres": "3,4",
    "EchellePrix": 4.0,
    "DescriptionCourte": "Une fine cuisine française aux saveurs inoubliables.",
    "FichierImage": "http://www.destinationsherbrooke.com/partenaires/443/images/bacchus.jpg",
    "Distance": -1
  },
  {
    "ID": 34.0,
    "Nom": "Le Bouchon",
    "SiteWeb": "http://lebouchon.ca/",
    "NumeroCivique": "107",
    "Rue": "Frontenac",
    "CodePostal": "J1H1J7",
    "Arrondissement": "Du Mont-Bellevue",
    "Ville": "Sherbrooke",
    "Latitude": "45.404578",
    "Longitude": "-71.89270499999998",
    "NumeroTelephone": "8195660876",
    "Categories": "1,5,6",
    "Offres": "3,4",
    "EchellePrix": 3.0,
    "DescriptionCourte": "Le Bouchon vous propose une fine cuisine du marché, mettant en valeur les produits du terroir québécois, et une vaste sélection de vins servis au verre.",
    "FichierImage": "http://www.destinationsherbrooke.com/partenaires/66/images/Bouchon-4-web.jpg",
    "Distance": -1
  },
  {
    "ID": 47.0,
    "Nom": "Le Cartier/ Pub St-Malo",
    "SiteWeb": "http://www.restaurantlecartier.com",
    "NumeroCivique": "255",
    "Rue": "boul. Jacques-Cartier Sud",
    "CodePostal": "J1J2Z5",
    "Arrondissement": "De Jacques-Cartier",
    "Ville": "Sherbrooke",
    "Latitude": "45.394952",
    "Longitude": "-71.918743",
    "NumeroTelephone": "8198213311",
    "Categories": "2,5,6,7",
    "Offres": "1,2,3,4",
    "EchellePrix": 1.0,
    "DescriptionCourte": "C’est dans la convivialité que Le Cartier/Pub St-Malo vous reçoit, face au parc Jacques-Cartier, faisant corps avec la promenade du Lac-des-Nations!",
    "FichierImage": "http://www.destinationsherbrooke.com/partenaires/67/images/cartier_st_malo.jpg",
    "Distance": -1
  },
  {
    "ID": 112.0,
    "Nom": "Le Coin d'Italie, épicerie fine",
    "SiteWeb": "http://www.lecoinditalie.com/accueil.html",
    "NumeroCivique": "1381",
    "Rue": "King Ouest",
    "CodePostal": "J1J2B8",
    "Arrondissement": "De Jacques-Cartier",
    "Ville": "Sherbrooke",
    "Latitude": "45.398719",
    "Longitude": "-71.91020000000003",
    "NumeroTelephone": "8195635130",
    "Categories": "3",
    "Offres": "0",
    "EchellePrix": 1.0,
    "DescriptionCourte": "Le Coin d'Italie, épicerie fine, spécialités italiennes, cours de cuisine, voyages culinaires. Une ambiance agréable qui invite au voyage et à la bonne bouffe!",
    "FichierImage": "http://www.destinationsherbrooke.com/partenaires/721/images/le_coin_ditalie8.jpg",
    "Distance": -1
  },
  {
    "ID": 32.0,
    "Nom": "Le Lion d'Or Pub et Microbrasserie",
    "SiteWeb": "www.lionlennoxville.com/accueil.html",
    "NumeroCivique": "2902",
    "Rue": "Collège",
    "CodePostal": "J1M1Z6",
    "Arrondissement": "De Lennoxville",
    "Ville": "Sherbrooke",
    "Latitude": "45.366114",
    "Longitude": "-71.85647599999999",
    "NumeroTelephone": "8195624589",
    "Categories": "2",
    "Offres": "3,4",
    "EchellePrix": 3.0,
    "DescriptionCourte": "Le Lion d'or vous propose de déguster des bières exclusives, brassées sur place, et de goûter à son menu exaltant.",
    "FichierImage": "http://www.destinationsherbrooke.com/partenaires/59/images/golden_pub34.jpg",
    "Distance": -1
  },
  {
    "ID": 29.0,
    "Nom": "Le Murville",
    "SiteWeb": "",
    "NumeroCivique": "2685",
    "Rue": "King Ouest",
    "CodePostal": "J1L1C1",
    "Arrondissement": "De Jacques-Cartier",
    "Ville": "Sherbrooke",
    "Latitude": "45.398893",
    "Longitude": "-71.94097399999998",
    "NumeroTelephone": "8198229873",
    "Categories": "1,5",
    "Offres": "1,2,3,4",
    "EchellePrix": 3.0,
    "DescriptionCourte": "Au Murville du Delta Sherbrooke, vous dégusterez une cuisine raffinée à saveur régionale. Vous vivrez une expérience culinaire mémorable.",
    "FichierImage": "http://www.destinationsherbrooke.com/partenaires/53/images/le_murville.jpg",
    "Distance": -1
  },
  {
    "ID": 110.0,
    "Nom": "Le Petit Parisien",
    "SiteWeb": "https://www.facebook.com/Restaurant-le-petit-parisien-176043882437291/",
    "NumeroCivique": "243",
    "Rue": "Alexandre",
    "CodePostal": "J1H4S8",
    "Arrondissement": "Du Mont-Bellevue",
    "Ville": "Sherbrooke",
    "Latitude": "45.396829",
    "Longitude": "-71.89205700000002",
    "NumeroTelephone": "8198224678",
    "Categories": "5,7",
    "Offres": "3,4",
    "EchellePrix": 3.0,
    "DescriptionCourte": "Dégustez une fine cuisine d'inspiration française dans un décor de petit bistro parisien en plein coeur de la rue Alexandre, au centre- ville de Sherbrooke.",
    "FichierImage": "http://www.destinationsherbrooke.com/partenaires/718/images/petit_parisien1.jpg",
    "Distance": -1
  },
  {
    "ID": 192.0,
    "Nom": "Le Refuge des brasseurs",
    "SiteWeb": "http://www.refugedesbrasseurs.ca/",
    "NumeroCivique": "2155",
    "Rue": "Galt Ouest",
    "CodePostal": "J1K1K3",
    "Arrondissement": "Du Mont-Bellevue",
    "Ville": "Sherbrooke",
    "Latitude": "45.387005",
    "Longitude": "-71.92599200000001",
    "NumeroTelephone": "8197917574",
    "Categories": "2",
    "Offres": "4",
    "EchellePrix": 3.0,
    "DescriptionCourte": "Située dans le quartier universitaire, cette microbrasserie vous fera découvrir de nouvelles saveurs, parfois même déroutantes!",
    "FichierImage": "http://www.destinationsherbrooke.com/partenaires/42072/images/RefugeBrasseursA.jpg",
    "Distance": -1
  },
  {
    "ID": 111.0,
    "Nom": "Le Snack, bar à poutines",
    "SiteWeb": "www.restaurant-snack.com",
    "NumeroCivique": "146",
    "Rue": "Wellington Nord",
    "CodePostal": "",
    "Arrondissement": "Du Mont-Bellevue",
    "Ville": "Sherbrooke",
    "Latitude": "45.403724",
    "Longitude": "-71.89174700000001",
    "NumeroTelephone": "8197915511",
    "Categories": "9,10",
    "Offres": "3,4",
    "EchellePrix": 2.0,
    "DescriptionCourte": "Le Snack, bar à poutines, marie saveurs et originalité et vous propose un menu du midi express.",
    "FichierImage": "http://www.destinationsherbrooke.com/partenaires/719/images/le_snack.jpg",
    "Distance": -1
  },
  {
    "ID": 114.0,
    "Nom": "Le Tassé - Café de quartier",
    "SiteWeb": "www.letassecafedequartier.com",
    "NumeroCivique": "426",
    "Rue": "du Conseil",
    "CodePostal": "J1H1J7",
    "Arrondissement": "De Fleurimont",
    "Ville": "Sherbrooke",
    "Latitude": "45.403498",
    "Longitude": "-71.879073",
    "NumeroTelephone": "8197912211",
    "Categories": "6",
    "Offres": "1,3",
    "EchellePrix": 2.0,
    "DescriptionCourte": "Situé dans le vieux quartier est de la ville, le Tassé est l'endroit idéal pour déjeuner, luncher et faire la pause-café.",
    "FichierImage": "http://www.destinationsherbrooke.com/partenaires/734/images/tasse_cafe_de_quartier.jpg",
    "Distance": -1
  },
  {
    "ID": 194.0,
    "Nom": "L'Empreinte, cuisine soignée",
    "SiteWeb": "www.restolempreinte.com",
    "NumeroCivique": "425",
    "Rue": "Marquette",
    "CodePostal": "J1H1M5",
    "Arrondissement": "Aucun",
    "Ville": "Sherbrooke",
    "Latitude": "45.400402",
    "Longitude": "-71.89691199999999",
    "NumeroTelephone": "8198208880",
    "Categories": "5",
    "Offres": "3,4",
    "EchellePrix": 4.0,
    "DescriptionCourte": "Micro restaurant dans le centre-ville de Sherbrooke, L’Empreinte vous propose un menu inspiré du marché, frais, vibrant, actuel et une carte des vins évolutive.",
    "FichierImage": "http://www.destinationsherbrooke.com/partenaires/42108/images/lempreinte3.jpg",
    "Distance": -1
  },
  {
    "ID": 76.0,
    "Nom": "L'Entr'Amis",
    "SiteWeb": "www.fine-cuisine.ca",
    "NumeroCivique": "734",
    "Rue": "13e Avenue Nord",
    "CodePostal": "J1E3L7",
    "Arrondissement": "De Fleurimont",
    "Ville": "Sherbrooke",
    "Latitude": "45.418816",
    "Longitude": "-71.87245200000001",
    "NumeroTelephone": "8193465227",
    "Categories": "5",
    "Offres": "3,4",
    "EchellePrix": 1.0,
    "DescriptionCourte": "Venez goûter à une fine cuisine aux mille et un parfums de la région dans un décor chaleureux.",
    "FichierImage": "http://www.destinationsherbrooke.com/partenaires/254/images/restaurant_lentreamis4.jpg",
    "Distance": -1
  },
  {
    "ID": 183.0,
    "Nom": "Les fantaisies de chaud Pain",
    "SiteWeb": "",
    "NumeroCivique": "5136",
    "Rue": "Boul. Bourque",
    "CodePostal": "J1N2K7",
    "Arrondissement": "De Rock Forest-Saint-Élie-Deauville",
    "Ville": "Sherbrooke",
    "Latitude": "45.404386",
    "Longitude": "-71.89341200000001",
    "NumeroTelephone": "8197918334",
    "Categories": "3",
    "Offres": "1",
    "EchellePrix": 2.0,
    "DescriptionCourte": "Boulangerie créative et pâtisserie artisanale, Les fantaisies de chaud Pain, vous offre des pains au levain faits de farines biologiques, sans sucre ni gras ajoutés et des viennoiseries au beurre.",
    "FichierImage": "http://www.destinationsherbrooke.com/partenaires/1842/images/fantaisies-chaud-pain2.jpg",
    "Distance": -1
  },
  {
    "ID": 39.0,
    "Nom": "Lo Ré, fine cuisine du marché",
    "SiteWeb": "www.restaurantlore.com",
    "NumeroCivique": "17",
    "Rue": "Peel",
    "CodePostal": "J1H4J9",
    "Arrondissement": "Du Mont-Bellevue",
    "Ville": "Sherbrooke",
    "Latitude": "45.400364",
    "Longitude": "-71.89387099999999",
    "NumeroTelephone": "8198224177",
    "Categories": "1,5",
    "Offres": "3,4",
    "EchellePrix": 4.0,
    "DescriptionCourte": "Lo Ré vous invite à vivre une aventure gastronomique unique et à découvrir une cuisine créative élaborée à partir de produits frais du marché.",
    "FichierImage": "http://www.destinationsherbrooke.com/partenaires/49/images/lo_re1.jpg",
    "Distance": -1
  },
  {
    "ID": 125.0,
    "Nom": "Louis Luncheonette Inc",
    "SiteWeb": "",
    "NumeroCivique": "386",
    "Rue": "King Est",
    "CodePostal": "J1G1B4",
    "Arrondissement": "De Fleurimont",
    "Ville": "Sherbrooke",
    "Latitude": "",
    "Longitude": "",
    "NumeroTelephone": "8195635581",
    "Categories": "9,10",
    "Offres": "1,3,4",
    "EchellePrix": 2.0,
    "DescriptionCourte": "Établissement de restauration rapide établi depuis 1949. Une institution à Sherbrooke!",
    "FichierImage": "http://www.destinationsherbrooke.com/partenaires/1437/images/louis_luncheonette2.jpg",
    "Distance": -1
  },
  {
    "ID": 81.0,
    "Nom": "Marché de la Gare",
    "SiteWeb": "www.marchedelagare.com/",
    "NumeroCivique": "720",
    "Rue": "Place de la Gare",
    "CodePostal": "J1H0E9",
    "Arrondissement": "Du Mont-Bellevue",
    "Ville": "Sherbrooke",
    "Latitude": "45.397528",
    "Longitude": "-71.89600899999999",
    "NumeroTelephone": "8198211919",
    "Categories": "3",
    "Offres": "0",
    "EchellePrix": 1.0,
    "DescriptionCourte": "Échangez avec les producteurs et retrouvez dans chaque bouchée le bon goût des Cantons-de-l’Est, le tout dans une atmosphère populaire.",
    "FichierImage": "http://www.destinationsherbrooke.com/partenaires/300/images/marche_de_la_gare_10.jpg",
    "Distance": -1
  },
  {
    "ID": 103.0,
    "Nom": "Méchant Steak",
    "SiteWeb": "http://www.mechantsteak.com/",
    "NumeroCivique": "111",
    "Rue": "Wellington Nord",
    "CodePostal": "J1H5B9",
    "Arrondissement": "Du Mont-Bellevue",
    "Ville": "Sherbrooke",
    "Latitude": "45.403122",
    "Longitude": "-71.89137399999998",
    "NumeroTelephone": "8197915544",
    "Categories": "5,9",
    "Offres": "3,4",
    "EchellePrix": 3.0,
    "DescriptionCourte": "Un steak house unique où l'ambiance et la bistronomie s'unissent pour vous faire vivre, à chaque visite, une expérience inoubliable!",
    "FichierImage": "http://www.destinationsherbrooke.com/partenaires/571/images/mechant_steak.jpg",
    "Distance": -1
  },
  {
    "ID": 30.0,
    "Nom": "Mondo Resto-Bar",
    "SiteWeb": "http://www.mondorestobar.com/",
    "NumeroCivique": "1155",
    "Rue": "King Ouest",
    "CodePostal": "J1H1S5",
    "Arrondissement": "De Jacques-Cartier",
    "Ville": "Sherbrooke",
    "Latitude": "45.398854",
    "Longitude": "-71.90598499999999",
    "NumeroTelephone": "8198201999",
    "Categories": "5",
    "Offres": "1,3,4",
    "EchellePrix": 3.0,
    "DescriptionCourte": "Le Mondo vous offre des fines spécialités italiennes et des saveurs exotiques provenant des quatre coins du monde...",
    "FichierImage": "http://www.destinationsherbrooke.com/partenaires/56/images/mondo1.jpg",
    "Distance": -1
  },
  {
    "ID": 187.0,
    "Nom": "O Chevreuil, Taverne Américaine",
    "SiteWeb": "www.ochevreuil.com",
    "NumeroCivique": "62",
    "Rue": "Wellington",
    "CodePostal": "J1H5B7",
    "Arrondissement": "Du Mont-Bellevue",
    "Ville": "Sherbrooke",
    "Latitude": "45.402418",
    "Longitude": "-71.89094599999999",
    "NumeroTelephone": "8193464440",
    "Categories": "5",
    "Offres": "3,4",
    "EchellePrix": 3.0,
    "DescriptionCourte": "Une expérience de taverne américaine réinventée! Découvrez chez O Chevreuil un menu coloré entièrement composé de produits régionaux et Nord-américains.",
    "FichierImage": "http://www.destinationsherbrooke.com/partenaires/22004/images/DJ-booth.jpg",
    "Distance": -1
  },
  {
    "ID": 191.0,
    "Nom": "Oli Shish Taouk",
    "SiteWeb": "www.olishishtaouk.com",
    "NumeroCivique": "2670",
    "Rue": "Galt Ouest",
    "CodePostal": "J1K2X2",
    "Arrondissement": "Du Mont-Bellevue",
    "Ville": "Sherbrooke",
    "Latitude": "45.387052",
    "Longitude": "-71.93885899999998",
    "NumeroTelephone": "8198212494",
    "Categories": "3,7",
    "Offres": "3,4",
    "EchellePrix": 2.0,
    "DescriptionCourte": "Une cuisine d'inspiration libanaise tout en fraîcheur!",
    "FichierImage": "http://www.destinationsherbrooke.com/partenaires/32059/images/Logo%20Oli%20Shish%20Taouk.jpg",
    "Distance": -1
  },
  {
    "ID": 127.0,
    "Nom": "OMG Resto",
    "SiteWeb": "http://www.omgresto.com/",
    "NumeroCivique": "1175",
    "Rue": "King Ouest",
    "CodePostal": "J1H1S6",
    "Arrondissement": "De Jacques-Cartier",
    "Ville": "Sherbrooke",
    "Latitude": "45.398856",
    "Longitude": "-71.90594599999997",
    "NumeroTelephone": "8198237001",
    "Categories": "5,6",
    "Offres": "3,4",
    "EchellePrix": 4.0,
    "DescriptionCourte": "OMG RESTO offre une ambiance incomparable, son décor enchanteur permet une multitude d’événement hors du commun. La cuisine offre des variétés de burgers maison, une spécialité dans les pièces de viande et un menu consta",
    "FichierImage": "http://www.destinationsherbrooke.com/partenaires/1556/images/omg_burger.jpg",
    "Distance": -1
  },
  {
    "ID": 11.0,
    "Nom": "Pacini",
    "SiteWeb": "www.pacini.ca",
    "NumeroCivique": "2960",
    "Rue": "King Ouest",
    "CodePostal": "J1L1Y7",
    "Arrondissement": "De Jacques-Cartier",
    "Ville": "Sherbrooke",
    "Latitude": "45.396464",
    "Longitude": "-71.94509900000003",
    "NumeroTelephone": "8198212654",
    "Categories": "7,9",
    "Offres": "1,2,3,4",
    "EchellePrix": 2.0,
    "DescriptionCourte": "Réputé depuis plus de 20 ans pour sa cuisine italienne, son décor agréable et son accueil chaleureux...",
    "FichierImage": "http://www.destinationsherbrooke.com/partenaires/58/images/pacini34.jpg",
    "Distance": -1
  },
  {
    "ID": 85.0,
    "Nom": "Paradis d'Asie",
    "SiteWeb": "http://paradisdasie.site.voila.fr/",
    "NumeroCivique": "1112",
    "Rue": "King Ouest",
    "CodePostal": "",
    "Arrondissement": "De Jacques-Cartier",
    "Ville": "Sherbrooke",
    "Latitude": "45.398877",
    "Longitude": "-71.905551",
    "NumeroTelephone": "8198220402",
    "Categories": "7",
    "Offres": "3,4",
    "EchellePrix": 3.0,
    "DescriptionCourte": "Le Paradis d’Asie saura combler les plus fins gourmets. Fine cuisine cambodgienne, vietnamienne et thaïlandaise.",
    "FichierImage": "http://www.destinationsherbrooke.com/partenaires/304/images/paradis_dasie5.jpg",
    "Distance": -1
  },
  {
    "ID": 99.0,
    "Nom": "Pizza Hut",
    "SiteWeb": "http://pizzahut.redberryweb.com/fr/quebec/sherbrooke",
    "NumeroCivique": "50",
    "Rue": "Lionel-Groulx",
    "CodePostal": "J1H2H3",
    "Arrondissement": "Aucun",
    "Ville": "Sherbrooke",
    "Latitude": "45.399194",
    "Longitude": "-71.94111599999997",
    "NumeroTelephone": "",
    "Categories": "9",
    "Offres": "3,4",
    "EchellePrix": 3.0,
    "DescriptionCourte": "Pizza Hut vous propose, dans un décor convivial et chaleureux, une ambiance décontractée et familiale qui se fait des plus accueillantes.",
    "FichierImage": "http://www.destinationsherbrooke.com/partenaires/445/images/pizza_hut3.jpg",
    "Distance": -1
  },
  {
    "ID": 102.0,
    "Nom": "Pizzicato",
    "SiteWeb": "http://www.pizzicato.ca/",
    "NumeroCivique": "47",
    "Rue": "King Ouest",
    "CodePostal": "J1H1P1",
    "Arrondissement": "Du Mont-Bellevue",
    "Ville": "Sherbrooke",
    "Latitude": "45.402233",
    "Longitude": "-71.888668",
    "NumeroTelephone": "8195754335",
    "Categories": "5,6,9",
    "Offres": "3,4",
    "EchellePrix": 3.0,
    "DescriptionCourte": "Musiciens, étage-verrière, terrasse... Ah oui, et pâtes & pizza fines!",
    "FichierImage": "http://www.destinationsherbrooke.com/partenaires/570/images/pizzicato1.jpg",
    "Distance": -1
  },
  {
    "ID": 12.0,
    "Nom": "Restaurant Chez Charlie",
    "SiteWeb": "www.charliesmokedmeat.com",
    "NumeroCivique": "10",
    "Rue": "Camirand",
    "CodePostal": "J1H4J5",
    "Arrondissement": "Du Mont-Bellevue",
    "Ville": "Sherbrooke",
    "Latitude": "45.399292",
    "Longitude": "-71.89498300000002",
    "NumeroTelephone": "8195664443",
    "Categories": "9,10",
    "Offres": "1,3,4",
    "EchellePrix": 2.0,
    "DescriptionCourte": "Établi à Sherbrooke plus de 30 ans, Chez Charlie vous offre un menu familial à des prix très abordables.",
    "FichierImage": "http://www.destinationsherbrooke.com/partenaires/62/images/chez_charlie.jpg",
    "Distance": -1
  },
  {
    "ID": 13.0,
    "Nom": "Restaurant Chicking",
    "SiteWeb": "www.chicking.ca",
    "NumeroCivique": "4857",
    "Rue": "boul. Bourque",
    "CodePostal": "J1N2G6",
    "Arrondissement": "De Rock Forest-Saint-Élie-Deauville",
    "Ville": "Sherbrooke",
    "Latitude": "45.372533",
    "Longitude": "-71.986265",
    "NumeroTelephone": "8198214333",
    "Categories": "9",
    "Offres": "3,4",
    "EchellePrix": 2.0,
    "DescriptionCourte": "Chicking, vous l'aurez deviné, c'est du poulet sous toutes ses formes: rôti, grillé, en burgers, en sandwichs, grignotines, poutines et salades...",
    "FichierImage": "http://www.destinationsherbrooke.com/partenaires/63/images/LogoChicking.jpg",
    "Distance": -1
  },
  {
    "ID": 46.0,
    "Nom": "Restaurant Demers",
    "SiteWeb": "www.restaurantdemers.com",
    "NumeroCivique": "936",
    "Rue": "Du Conseil",
    "CodePostal": "J1G1L7",
    "Arrondissement": "De Fleurimont",
    "Ville": "Sherbrooke",
    "Latitude": "45.403754",
    "Longitude": "-71.868631",
    "NumeroTelephone": "8195642811",
    "Categories": "9",
    "Offres": "1,3,4",
    "EchellePrix": 1.0,
    "DescriptionCourte": "Au menu au Restaurant Demers : déjeuners, dîners, soupers, pizza cuite au four à bois, poulet cuit au feu de bois, steak, fruits de mer et table d’hôte.",
    "FichierImage": "http://www.destinationsherbrooke.com/partenaires/64/images/Demers-5.jpg",
    "Distance": -1
  },
  {
    "ID": 95.0,
    "Nom": "Restaurant Normandin",
    "SiteWeb": "http://www.restaurantnormandin.com/fr/restaurants/estrie/36-sherbrooke-ouest/",
    "NumeroCivique": "2707",
    "Rue": "King Ouest",
    "CodePostal": "J1L1C1",
    "Arrondissement": "De Jacques-Cartier",
    "Ville": "Sherbrooke",
    "Latitude": "45.398246",
    "Longitude": "-71.939096",
    "NumeroTelephone": "8198220555",
    "Categories": "9",
    "Offres": "1,3,4",
    "EchellePrix": 2.0,
    "DescriptionCourte": "Un menu varié, un service courtois et un rapport qualité/prix exceptionnel, voilà les principaux ingrédients qui font le succès de Normandin.",
    "FichierImage": "http://www.destinationsherbrooke.com/partenaires/418/images/normandin1.jpg",
    "Distance": -1
  },
  {
    "ID": 121.0,
    "Nom": "Restaurant Overflow",
    "SiteWeb": "www.restaurantoverflow.com",
    "NumeroCivique": "1576",
    "Rue": "King ouest",
    "CodePostal": "J1J2C3",
    "Arrondissement": "De Jacques-Cartier",
    "Ville": "Sherbrooke",
    "Latitude": "",
    "Longitude": "",
    "NumeroTelephone": "8197917229",
    "Categories": "7",
    "Offres": "3,4",
    "EchellePrix": 3.0,
    "DescriptionCourte": "Sous la formule tapas et bar à vin, le tout dans une ambiance urbaine et décontractée, l'Overflow est l'endroit de choix pour vos 5 à 7.",
    "FichierImage": "http://www.destinationsherbrooke.com/partenaires/1168/images/overflow.jpg",
    "Distance": -1
  },
  {
    "ID": 83.0,
    "Nom": "Restaurant Pho Loc",
    "SiteWeb": "www.restaurantpholoc.ca",
    "NumeroCivique": "1425",
    "Rue": "King Ouest",
    "CodePostal": "",
    "Arrondissement": "De Jacques-Cartier",
    "Ville": "Sherbrooke",
    "Latitude": "45.398702",
    "Longitude": "-71.91153700000001",
    "NumeroTelephone": "8195691467",
    "Categories": "7",
    "Offres": "3,4",
    "EchellePrix": 3.0,
    "DescriptionCourte": "Pur plaisir asiatique sur la rue King Ouest à Sherbrooke!",
    "FichierImage": "http://www.destinationsherbrooke.com/partenaires/302/images/pho_loc5.jpg",
    "Distance": -1
  },
  {
    "ID": 74.0,
    "Nom": "Restaurant Twist",
    "SiteWeb": "http://www.restauranttwist.com/",
    "NumeroCivique": "4590",
    "Rue": "boul. Bourque",
    "CodePostal": "J1N2A8",
    "Arrondissement": "De Rock Forest-Saint-Élie-Deauville",
    "Ville": "Sherbrooke",
    "Latitude": "45.375867",
    "Longitude": "-71.979893",
    "NumeroTelephone": "8197915500",
    "Categories": "9",
    "Offres": "1,3,4",
    "EchellePrix": 3.0,
    "DescriptionCourte": "Restaurant Familial servant les déjeuners, diners et soupers.",
    "FichierImage": "http://www.destinationsherbrooke.com/partenaires/252/images/restaurant_twist4.jpg",
    "Distance": -1
  },
  {
    "ID": 4.0,
    "Nom": "Resto Bar Chez Stanley",
    "SiteWeb": "www.restobarchezstanley.com/",
    "NumeroCivique": "1180",
    "Rue": "King Est",
    "CodePostal": "J1G1E4",
    "Arrondissement": "De Fleurimont",
    "Ville": "Sherbrooke",
    "Latitude": "45.40824",
    "Longitude": "-71.86314299999998",
    "NumeroTelephone": "8195623350",
    "Categories": "8,9",
    "Offres": "3,4",
    "EchellePrix": 3.0,
    "DescriptionCourte": "Restaurant avec ambiance sportive. En été, la terrasse vous propose une vue sur la ville...",
    "FichierImage": "http://www.destinationsherbrooke.com/partenaires/44/images/chez-stanley2.jpg",
    "Distance": -1
  },
  {
    "ID": 15.0,
    "Nom": "Savoroso Café Gelato",
    "SiteWeb": "www.savoroso.com",
    "NumeroCivique": "720",
    "Rue": "place de la Gare, suite 104",
    "CodePostal": "J1H0E9",
    "Arrondissement": "Du Mont-Bellevue",
    "Ville": "Sherbrooke",
    "Latitude": "45.397528",
    "Longitude": "-71.89600899999999",
    "NumeroTelephone": "8193462206",
    "Categories": "3,6",
    "Offres": "1,3,4",
    "EchellePrix": 2.0,
    "DescriptionCourte": "Une vague de jeunesse émerge littéralement de cette gelateria qui fait partie de ces endroits nouveau genre à Sherbrooke et dans lequel on a l’impression d’être ailleurs.",
    "FichierImage": "http://www.destinationsherbrooke.com/partenaires/74/images/savoroso3.jpg",
    "Distance": -1
  },
  {
    "ID": 122.0,
    "Nom": "Sballo",
    "SiteWeb": "www.sballo.ca",
    "NumeroCivique": "34",
    "Rue": "rue Wellington nord",
    "CodePostal": "J1H5B7",
    "Arrondissement": "Du Mont-Bellevue",
    "Ville": "Sherbrooke",
    "Latitude": "45.402001",
    "Longitude": "-71.89068500000002",
    "NumeroTelephone": "8197913559",
    "Categories": "5,7",
    "Offres": "4",
    "EchellePrix": 4.0,
    "DescriptionCourte": "Bienvenue chez SBALLO il ristorante où vous pourrez savourer des plats typiquement italiens dans un décor classique contemporain qui vous saisira.",
    "FichierImage": "http://www.destinationsherbrooke.com/partenaires/1175/images/sballo2.jpg",
    "Distance": -1
  },
  {
    "ID": 79.0,
    "Nom": "Scores",
    "SiteWeb": "www.scores.ca",
    "NumeroCivique": "2800",
    "Rue": "King Ouest",
    "CodePostal": "",
    "Arrondissement": "De Jacques-Cartier",
    "Ville": "Sherbrooke",
    "Latitude": "45.397917",
    "Longitude": "-71.94093700000002",
    "NumeroTelephone": "8195634444",
    "Categories": "9",
    "Offres": "3,4",
    "EchellePrix": 3.0,
    "DescriptionCourte": "Vous en aurez toujours plus chez Scores...",
    "FichierImage": "http://www.destinationsherbrooke.com/partenaires/259/images/scores3.jpg",
    "Distance": -1
  },
  {
    "ID": 180.0,
    "Nom": "Sebby's Pub & Grill",
    "SiteWeb": "http://www.sebbys.com/",
    "NumeroCivique": "83",
    "Rue": "rue Queen",
    "CodePostal": "J1M1J3",
    "Arrondissement": "De Lennoxville",
    "Ville": "Sherbrooke",
    "Latitude": "45.364254",
    "Longitude": "-71.85645399999999",
    "NumeroTelephone": "8195699755",
    "Categories": "9",
    "Offres": "3,4",
    "EchellePrix": 3.0,
    "DescriptionCourte": "Une brasserie style Steackhouse américain se spécialisant dans les côtes levées et boeuf canadien « Angus Pride ».",
    "FichierImage": "http://www.destinationsherbrooke.com/partenaires/1800/images/sebby2.jpg",
    "Distance": -1
  },
  {
    "ID": 44.0,
    "Nom": "Siboire",
    "SiteWeb": "www.siboire.ca",
    "NumeroCivique": "80",
    "Rue": "du Dépôt",
    "CodePostal": "J1H5G1",
    "Arrondissement": "Du Mont-Bellevue",
    "Ville": "Sherbrooke",
    "Latitude": "45.400702",
    "Longitude": "-71.88864899999999",
    "NumeroTelephone": "8195653636",
    "Categories": "2",
    "Offres": "0",
    "EchellePrix": 1.0,
    "DescriptionCourte": "Avec ses quatre bières régulières et ses deux saisonnières au menu, vous serez toujours en mesure de satisfaire votre curiosité et d'en apprendre toujours plus sur la bière.",
    "FichierImage": "http://www.destinationsherbrooke.com/partenaires/43/images/siboire.jpg",
    "Distance": -1
  },
  {
    "ID": 176.0,
    "Nom": "Stratos Pizzeria",
    "SiteWeb": "",
    "NumeroCivique": "260",
    "Rue": "12e Avenue",
    "CodePostal": "J1E2W4",
    "Arrondissement": "Aucun",
    "Ville": "Sherbrooke",
    "Latitude": "45.40373",
    "Longitude": "-71.87052900000003",
    "NumeroTelephone": "8195735555",
    "Categories": "9",
    "Offres": "1,3,4",
    "EchellePrix": 2.0,
    "DescriptionCourte": "L’ambiance familiale décontractée vous plaira certainement. Stratos Pizzeria, en plein dans l'goût!",
    "FichierImage": "http://www.destinationsherbrooke.com/partenaires/1776/images/Stratos1_2015.jpg",
    "Distance": -1
  },
  {
    "ID": 73.0,
    "Nom": "Sushi Express",
    "SiteWeb": "www.sushiexpress.ca",
    "NumeroCivique": "119",
    "Rue": "Frontenac",
    "CodePostal": "",
    "Arrondissement": "Du Mont-Bellevue",
    "Ville": "Sherbrooke",
    "Latitude": "45.404507",
    "Longitude": "-71.89294799999999",
    "NumeroTelephone": "8197911110",
    "Categories": "7",
    "Offres": "3,4",
    "EchellePrix": 3.0,
    "DescriptionCourte": "Qui a dit que manger vite à un prix abordable égalait mauvaise alimentation? Sushi Express dément le mythe en vous proposant des sushis à la portée de la main pour tous les budgets.",
    "FichierImage": "http://www.destinationsherbrooke.com/partenaires/251/images/sushis_express.jpg",
    "Distance": -1
  },
  {
    "ID": 186.0,
    "Nom": "Un monde de noix",
    "SiteWeb": "www.unmondedenoix.com",
    "NumeroCivique": "276",
    "Rue": "King Ouest",
    "CodePostal": "J1H1R1",
    "Arrondissement": "De Jacques-Cartier",
    "Ville": "Sherbrooke",
    "Latitude": "45.399795",
    "Longitude": "-71.89361600000001",
    "NumeroTelephone": "8199931834",
    "Categories": "3",
    "Offres": "0",
    "EchellePrix": 1.0,
    "DescriptionCourte": "Redécouvrez les noix! Plus d’une quarantaine de variétés de noix et de mélanges de noix vous sont offertes par cette sympathique boutique spécialisée du centre-ville de Sherbrooke.",
    "FichierImage": "http://www.destinationsherbrooke.com/partenaires/11877/images/NOIX_0000_Photo%201%20-%20Un%20Monde%20de%20Noix.jpg",
    "Distance": -1
  },
  {
    "ID": 78.0,
    "Nom": "Village vietnamien",
    "SiteWeb": "",
    "NumeroCivique": "185",
    "Rue": "Alexandre",
    "CodePostal": "",
    "Arrondissement": "Du Mont-Bellevue",
    "Ville": "Sherbrooke",
    "Latitude": "45.397356",
    "Longitude": "-71.89243599999998",
    "NumeroTelephone": "8195667494",
    "Categories": "7",
    "Offres": "4",
    "EchellePrix": 3.0,
    "DescriptionCourte": "Dans le respect des traditions culinaires vietnamiennes, Le Village vietnamien vous propose une cuisine saine et authentique jour après jour.",
    "FichierImage": "http://www.destinationsherbrooke.com/partenaires/256/images/Village_vietnamien1.jpg",
    "Distance": -1
  }
]
